{
  "mnemonic": [
    "ski",
    "repeat",
    "wait",
    "ticket",
    "mean",
    "reveal",
    "describe",
    "spread",
    "crash",
    "lamp",
    "joy",
    "rib",
    "warm",
    "web",
    "genre"
  ],
  "secret": "49be30f0a5558eb70b737cca0281ef83df6e7f51",
  "amount": "36688161234",
  "pkh": "tz1N7refvQRaa9bfofABxwPzRXsW18ki9GMS",
  "password": "x6vUEFjoV6",
  "email": "wpxuwqtx.cvipytab@tezos.example.org"
}